{
  "request": {
    "method": "GET",
    "urlPath": "/user",
    "queryParameters" : {
      "first_name": {
        "matches": "^[A-Za-z]+$"
      },
      "last_name": {
        "matches": "^[A-Za-z]+$"
      }
    }
  },
  "response": {
    "status": 200,
    "headers": {
      "Content-Type": "application/json"
    },
    "jsonBody": {
      "results": [
        {
          "gender": "female",
          "name": {
            "title": "Ms",
            "first": "Daria",
            "last": "Hartl"
          },
          "location": {
            "street": {
              "number": 2356,
              "name": "Römerstraße"
            },
            "city": "Gudensberg",
            "state": "Hamburg",
            "country": "Germany",
            "postcode": 27530,
            "coordinates": {
              "latitude": "-43.1619",
              "longitude": "30.7300"
            },
            "timezone": {
              "offset": "+6:00",
              "description": "Almaty, Dhaka, Colombo"
            }
          },
          "email": "daria.hartl@example.com",
          "login": {
            "uuid": "36fc3d55-3482-4b0e-beb9-df3b8ee448b3",
            "username": "organicsnake959",
            "password": "rachel",
            "salt": "rHjUc5B5",
            "md5": "28eccee3b4ba8205ac354c34d05c7e7d",
            "sha1": "3d212ed35e74f58e0c11f2d9c7cdfde430e5a062",
            "sha256": "13b96c4a0c1017aebcc8e85b85e353405783e74705e802389891aab6ea4dfb7b"
          },
          "dob": {
            "date": "1955-12-28T23:47:48.874Z",
            "age": 65
          },
          "registered": {
            "date": "2014-04-25T01:27:02.439Z",
            "age": 6
          },
          "phone": "0882-2572333",
          "cell": "0176-9468932",
          "id": {
            "name": "",
            "value": null
          },
          "picture": {
            "large": "https://randomuser.me/api/portraits/women/49.jpg",
            "medium": "https://randomuser.me/api/portraits/med/women/49.jpg",
            "thumbnail": "https://randomuser.me/api/portraits/thumb/women/49.jpg"
          },
          "nat": "DE"
        }
      ]
    }
  }
}